<svg width="30" height="97" viewBox="0 0 30 97" version="1.1" xmlns="http://www.w3.org/2000/svg" xmlns:xlink="http://www.w3.org/1999/xlink">
<g data-name="Canvas" fill="none">
<g data-name="np_wheat_1090038_686868">
<g data-name="Vector">
<g transform="scale(0.967742)">
<path d="M 17.364 27.5815L 15.5 29.6873L 13.636 27.5815C 8.64524 21.9479 8.06133 11.5409 12.3603 4.87062L 15.5 -4.24384e-07L 18.6397 4.87062C 22.9386 11.5478 22.3504 21.955 17.364 27.5815ZM 23.2067 29.852C 19.8074 32.6535 17.7143 37.7926 17.7143 43.3468L 17.7143 49.9996L 25.5076 43.5848C 28.9068 40.7832 31 35.6442 31 30.09L 31 23.4372L 23.2067 29.852ZM 17.7143 68.3472L 17.7143 75L 25.5076 68.5852C 28.9068 65.7836 31 60.6446 31 55.0904L 31 48.4376L 23.2067 54.8524C 19.8074 57.654 17.7143 62.793 17.7143 68.3472ZM 17.7143 93.3472L 17.7143 100L 25.5076 93.5852C 28.9068 90.7836 31 85.6445 31 80.0903L 31 73.4375L 23.2067 79.8524C 19.8074 82.6539 17.7143 87.793 17.7143 93.3472ZM 7.79329 29.852L 6.01414e-07 23.4372L 6.01414e-07 30.09C 6.01414e-07 35.6503 2.09316 40.7895 5.49242 43.5848L 13.2857 49.9996L 13.2857 43.3468C 13.2857 37.7926 11.1926 32.6534 7.79329 29.852ZM 7.79329 54.8519L 6.01414e-07 48.4371L 6.01414e-07 55.0899C 6.01414e-07 60.6502 2.09316 65.7894 5.49242 68.5847L 13.2857 74.9996L 13.2857 68.3468C 13.2857 62.7926 11.1926 57.6533 7.79329 54.8519ZM 7.79329 79.8519L 6.01414e-07 73.4371L 6.01414e-07 80.0899C 6.01414e-07 85.6502 2.09316 90.7894 5.49242 93.5847L 13.2857 99.9995L 13.2857 93.3467C 13.2857 87.7925 11.1926 82.6533 7.79329 79.8519Z" fill="#C3C3C3"/>
</g>
</g>
</g>
</g>
</svg>

